question,answer
Step by step list of instructions that if followed exactly will solve the problem under consideration is called a/an ___,algorithm
What is the command to print something in Python?,print
___ is a notation that is more precise than English but generally not as precise as a programming language,pseudocode
Which loop (in Python) would you use if you want to receive input from the user of your program but you don’t know how long it’ll take for them to be done with your code,while
Comment 'this word' in Python,#this word
How do you write 'snake code' in camel code,SnakeCode
How can you determine the type of a variable?,type
What is the data type of ‘this is what kind of data’?,string
"After the following statements, what is the value of y ? x = 15 y = x x = 2023",15
What is a built-in Python function that returns the number of characters in a string?,len
What is debugging?,tracking down programming errors and correcting them
Who or what typically finds syntax errors?,compiler / interpreter
___ is a file containing Python definitions and statements intended for use in other Python programs,module
What is a first step to use modules in Python?, importing
Let's say you want to create a program that picks a natural number and student should answer if that is divisible by 3 or not. Which Python module would you use for randomness of that picked number?,random
The correct code to generate a random number between 1 and 100 (inclusive) is prob = ?,random.randrange(1 comma 101)
One reason that lotteries don’t use computers to generate random numbers is:,Because computers don’t really generate random numbers they generate pseudo-random numbers